…
## # A tibble: 1 × 1
##   total_active
##          <int>
## 1         8906

Can you provide a 95% confidence interval for the population proportion of high schools that are NOT active 3 or more days per week?

data1 <- yrbss %>%
  filter(physically_active_7d<3)
data1  

## # A tibble: 4,404 × 13
##      age gender grade hispanic race        height weight helme…¹ text_…² physi…³
##    <int> <chr>  <chr> <chr>    <chr>        <dbl>  <dbl> <chr>   <chr>     <int>
##  1    14 female 9     not      Black or A…  NA      NA   never   <NA>          2
##  2    15 female 9     not      Black or A…   1.6    55.8 never   0             0
##  3    15 female 9     not      Black or A…   1.5    46.7 did no… did no…       2
##  4    15 female 9     not      Black or A…   1.57   67.1 did no… did no…       1
##  5    15 male   10    not      Black or A…   1.37   97.1 did no… <NA>          0
##  6    15 female 9     not      Black or A…   1.68   69.8 did no… 0             0
##  7    15 female 9     not      Black or A…   1.65   66.7 did no… did no…       0
##  8    16 male   9     not      Black or A…   1.83   73.5 never   did no…       0
##  9    16 female 10    not      Black or A…   1.55   52.2 did no… 0             2
## 10    15 female 10    not      Black or A…  NA      NA   did no… did no…       2
## # … with 4,394 more rows, 3 more variables: hours_tv_per_school_day <chr>,
## #   strength_training_7d <int>, school_night_hours_sleep <chr>, and abbreviated
## #   variable names ¹​helmet_12m, ²​text_while_driving_30d, ³​physically_active_7d
n <- count(data1)
xbar <- mean(data1$physically_active_7d,na.rm=TRUE)
s <- sd(data1$physically_active_7d,na.rm=TRUE)
margin <- qt(0.975,as.integer(n-1))*s/sqrt(n)
lower_interval <- xbar-margin
upper_interval <- xbar+margin

Make a boxplot of physical_3plus vs. weight. Is there a relationship between these two variables? What did you expect and why?

physical_3plus <- yrbss %>%
  mutate(final_result = ifelse(physically_active_7d>=3,'yes','no')) %>% 
drop_na(final_result)
physical_3plus  

## # A tibble: 13,310 × 14
##      age gender grade hispanic race        height weight helme…¹ text_…² physi…³
##    <int> <chr>  <chr> <chr>    <chr>        <dbl>  <dbl> <chr>   <chr>     <int>
##  1    14 female 9     not      Black or A…  NA      NA   never   0             4
##  2    14 female 9     not      Black or A…  NA      NA   never   <NA>          2
##  3    15 female 9     hispanic Native Haw…   1.73   84.4 never   30            7
##  4    15 female 9     not      Black or A…   1.6    55.8 never   0             0
##  5    15 female 9     not      Black or A…   1.5    46.7 did no… did no…       2
##  6    15 female 9     not      Black or A…   1.57   67.1 did no… did no…       1
##  7    15 female 9     not      Black or A…   1.65  132.  did no… <NA>          4
##  8    14 male   9     not      Black or A…   1.88   71.2 never   <NA>          4
##  9    15 male   9     not      Black or A…   1.75   63.5 never   <NA>          5
## 10    15 male   10    not      Black or A…   1.37   97.1 did no… <NA>          0
## # … with 13,300 more rows, 4 more variables: hours_tv_per_school_day <chr>,
## #   strength_training_7d <int>, school_night_hours_sleep <chr>,
## #   final_result <chr>, and abbreviated variable names ¹​helmet_12m,
## #   ²​text_while_driving_30d, ³​physically_active_7d
…
